[
    {
        "Name": "BasicEncounter",
        "Message": "This is just a basic encounter",
        "Choices": [
            {
                "Message": "Do nothing",
				"result": 
				{
					"message" : "You do nothing"
				}
            },
            {
                "Message": "Affect relations positively",
                "result": 
				{
					"result" : "AffectRelations",
					"message" : "You make better relations",
					"key" : "flogiston",
					"value" : 10
				}
            },
            {
                "Message": "Affect relations negatively",
                "result": 
				{
					"result" : "AffectRelations",
					"message" : "You make worse relations",
					"key" : "flogiston",
					"value" : -10
				}
            },
            {
                "Message": "Use relations!",
                "result": 
				{
					"message" : "You fight"
					"result": "Fight"
				}
				"condition" : 
				{
					"condition" : "RelationsWith",
					"key" : "flogiston",
					"value" : 0.0,
				}
            },
        ]
    }
]